cs233/Lab3/alu1.vcd
$date
	Thu Feb  1 22:15:01 2018
$end
$version
	Icarus Verilog
$end
$timescale
	1s
$end
$scope module alu1_test $end
$var wire 1 ! out $end
$var wire 1 " carryout $end
$var reg 1 # A $end
$var reg 1 $ B $end
$var reg 1 % carryin $end
$var reg 3 & control [2:0] $end
$scope module alu_1 $end
$var wire 1 # A $end
$var wire 1 $ B $end
$var wire 1 % carryin $end
$var wire 3 ' control [2:0] $end
$var wire 1 ( w1 $end
$var wire 1 ) w3 $end
$var wire 1 * w2 $end
$var wire 1 ! out $end
$var wire 1 " carryout $end
$scope module fa1 $end
$var wire 1 # a $end
$var wire 1 ( b $end
$var wire 1 % cin $end
$var wire 1 " cout $end
$var wire 1 + partial_c1 $end
$var wire 1 , partial_c2 $end
$var wire 1 - partial_s $end
$var wire 1 * sum $end
$upscope $end
$scope module l1 $end
$var wire 1 # A $end
$var wire 1 $ B $end
$var wire 2 . control [1:0] $end
$var wire 1 / w1 $end
$var wire 1 0 w2 $end
$var wire 1 1 w3 $end
$var wire 1 2 w4 $end
$var wire 1 ) out $end
$scope module m1 $end
$var wire 1 / A $end
$var wire 1 0 B $end
$var wire 1 1 C $end
$var wire 1 2 D $end
$var wire 2 3 control [1:0] $end
$var wire 1 4 w2 $end
$var wire 1 5 w1 $end
$var wire 1 ) out $end
$scope module m1 $end
$var wire 1 / A $end
$var wire 1 0 B $end
$var wire 1 6 control $end
$var wire 1 7 not_control $end
$var wire 1 5 out $end
$var wire 1 8 wA $end
$var wire 1 9 wB $end
$upscope $end
$scope module m2 $end
$var wire 1 1 A $end
$var wire 1 2 B $end
$var wire 1 : control $end
$var wire 1 ; not_control $end
$var wire 1 4 out $end
$var wire 1 < wA $end
$var wire 1 = wB $end
$upscope $end
$scope module m3 $end
$var wire 1 5 A $end
$var wire 1 4 B $end
$var wire 1 > control $end
$var wire 1 ? not_control $end
$var wire 1 ) out $end
$var wire 1 @ wA $end
$var wire 1 A wB $end
$upscope $end
$upscope $end
$upscope $end
$scope module m1 $end
$var wire 1 * A $end
$var wire 1 ) B $end
$var wire 1 B control $end
$var wire 1 C not_control $end
$var wire 1 ! out $end
$var wire 1 D wA $end
$var wire 1 E wB $end
$upscope $end
$upscope $end
$upscope $end
$enddefinitions $end
#0
$dumpvars
0E
0D
1C
0B
1A
0@
0?
1>
0=
1<
1;
0:
09
08
17
06
05
14
b10 3
02
11
00
0/
b10 .
0-
0,
0+
0*
1)
0(
b10 '
b10 &
0%
0$
0#
0"
0!
$end
#1
0)
1!
0A
1D
04
1*
0<
1-
10
01
12
1#
#2
1(
0#
1$
#3
0!
0D
15
0*
1"
18
0-
1+
1/
02
1#
#4
1)
1A
05
14
1!
0"
08
1<
1D
0+
0(
0/
00
11
1*
0#
0$
1%
#5
0)
0!
0A
0D
1"
04
0*
1,
0<
1-
10
01
12
1#
#6
1(
0#
1$
#7
1!
1D
15
1*
0,
18
0-
1+
1/
02
1#
#8
0)
0A
05
04
1!
0;
07
0"
08
0<
1D
1:
16
1-
0+
0/
00
11
1*
b11 .
b11 3
0#
0$
0%
b11 &
b11 '
#9
1)
0!
1A
0D
15
14
0*
1"
19
1=
0-
1+
10
01
12
1#
#10
0"
0+
0(
0#
1$
#11
0)
1!
0A
1D
04
1*
0=
1-
1/
02
1#
#12
05
0!
09
0D
1"
1(
0/
00
11
0*
1,
0#
0$
1%
#13
1)
1!
1A
1D
15
14
1*
0,
19
1=
0-
1+
10
01
12
1#
#14
0"
0+
0(
0#
1$
#15
0)
0!
0A
0D
1"
04
0*
1,
0=
1-
1/
02
1#
#16
14
1<
05
1?
1;
17
09
0"
0>
0:
06
0C
0-
0/
00
11
0*
0,
b0 .
b0 3
1B
0#
0$
0%
b100 &
b100 '
#17
04
1*
0<
1-
10
01
12
1#
#18
1(
0#
1$
#19
1!
1E
1)
1@
15
0*
1"
18
0-
1+
1/
02
1#
#20
0!
0E
0)
0@
05
14
0"
08
1<
0+
0(
0/
00
11
1*
0#
0$
1%
#21
1"
04
0*
1,
0<
1-
10
01
12
1#
#22
1(
0#
1$
#23
1!
1E
1)
1@
15
1*
0,
18
0-
1+
1/
02
1#
#24
0!
0E
0)
0@
05
04
0;
07
0"
08
0<
1:
16
1-
0+
0/
00
11
1*
b1 .
b1 3
0#
0$
0%
b101 &
b101 '
#25
1!
1E
1)
1@
15
14
0*
1"
19
1=
0-
1+
10
01
12
1#
#26
0"
0+
0(
0#
1$
#27
04
1*
0=
1-
1/
02
1#
#28
0!
0E
0)
0@
05
09
1"
1(
0/
00
11
0*
1,
0#
0$
1%
#29
1!
1E
1)
1@
15
14
1*
0,
19
1=
0-
1+
10
01
12
1#
#30
0"
0+
0(
0#
1$
#31
1"
04
0*
1,
0=
1-
1/
02
1#
#32
1!
1E
1A
1)
14
0@
1<
05
0?
1;
17
09
0"
1>
0:
06
0-
0/
00
11
0*
0,
b10 .
b10 3
0#
0$
0%
b110 &
b110 '
#33
0!
0E
0)
0A
04
1*
0<
1-
10
01
12
1#
#34
1(
0#
1$
#35
15
0*
1"
18
0-
1+
1/
02
1#
#36
1!
1E
1)
1A
05
14
0"
08
1<
0+
0(
0/
00
11
1*
0#
0$
1%
#37
0!
0E
0)
0A
1"
04
0*
1,
0<
1-
10
01
12
1#
#38
1(
0#
1$
#39
15
1*
0,
18
0-
1+
1/
02
1#
#40
0!
0E
0)
0A
05
04
0;
07
0"
08
0<
1:
16
1-
0+
0/
00
11
1*
b11 .
b11 3
0#
0$
0%
b111 &
b111 '
#41
1!
1E
1)
1A
15
14
0*
1"
19
1=
0-
1+
10
01
12
1#
#42
0"
0+
0(
0#
1$
#43
0!
0E
0)
0A
04
1*
0=
1-
1/
02
1#
#44
05
09
1"
1(
0/
00
11
0*
1,
0#
0$
1%
#45
1!
1E
1)
1A
15
14
1*
0,
19
1=
0-
1+
10
01
12
1#
#46
0"
0+
0(
0#
1$
#47
0!
0E
0)
0A
1"
04
0*
1,
0=
1-
1/
02
1#
#48
05
09
0"
1(
0/
00
11
1*
0,
0#
0$
0%
