cs233/Lab4/palindrome_control.vcd
$date
	Sun Feb 11 18:13:53 2018
$end
$version
	Icarus Verilog
$end
$timescale
	1s
$end
$scope module palindrome_control_test $end
$var wire 1 ! select $end
$var wire 1 " palindrome $end
$var wire 1 # load $end
$var wire 1 $ front_ge_back $end
$var wire 1 % done $end
$var wire 1 & a_ne_b $end
$var reg 5 ' base [4:0] $end
$var reg 1 ( clock $end
$var reg 5 ) ending [4:0] $end
$var reg 1 * go $end
$var reg 1 + reset $end
$var integer 32 , i [31:0] $end
$scope module circuit $end
$var wire 5 - base [4:0] $end
$var wire 1 ( clk $end
$var wire 5 . ending [4:0] $end
$var wire 1 $ front_ge_back $end
$var wire 1 + reset $end
$var wire 1 ! select $end
$var wire 1 # load $end
$var wire 1 / front_lt_back $end
$var wire 32 0 b [31:0] $end
$var wire 1 & a_ne_b $end
$var wire 32 1 a [31:0] $end
$var reg 5 2 back [4:0] $end
$var reg 5 3 front [4:0] $end
$scope module compareCounters $end
$var wire 5 4 A [4:0] $end
$var wire 5 5 B [4:0] $end
$var wire 1 6 ne $end
$var wire 1 / lt $end
$upscope $end
$scope module compareValues $end
$var wire 1 & ne $end
$var wire 1 7 lt $end
$var wire 32 8 B [31:0] $end
$var wire 32 9 A [31:0] $end
$upscope $end
$scope module rf $end
$var wire 1 ( clock $end
$var wire 32 : internal_rdData [31:0] $end
$var wire 32 ; rdData [31:0] $end
$var wire 5 < rdNum [4:0] $end
$var wire 1 = rdWriteEnable $end
$var wire 1 + reset $end
$var wire 32 > rsData [31:0] $end
$var wire 5 ? rsNum [4:0] $end
$var wire 32 @ rtData [31:0] $end
$var wire 5 A rtNum [4:0] $end
$var integer 32 B i [31:0] $end
$upscope $end
$upscope $end
$scope module control $end
$var wire 1 & a_ne_b $end
$var wire 1 ( clock $end
$var wire 1 % done $end
$var wire 1 $ front_ge_back $end
$var wire 1 * go $end
$var wire 1 # load $end
$var wire 1 " palindrome $end
$var wire 1 + reset $end
$var wire 1 C sCheck_next $end
$var wire 1 D sDoneA_next $end
$var wire 1 E sDoneR_next $end
$var wire 1 F sGarbage_next $end
$var wire 1 G sStart_next $end
$var wire 1 ! select $end
$var wire 1 H sStart $end
$var wire 1 I sGarbage $end
$var wire 1 J sDoneR $end
$var wire 1 K sDoneA $end
$var wire 1 L sCheck $end
$scope module fsCheck $end
$var wire 1 ( clk $end
$var wire 1 C d $end
$var wire 1 M enable $end
$var wire 1 N reset $end
$var reg 1 L q $end
$upscope $end
$scope module fsDoneA $end
$var wire 1 ( clk $end
$var wire 1 D d $end
$var wire 1 O enable $end
$var wire 1 P reset $end
$var reg 1 K q $end
$upscope $end
$scope module fsDoneR $end
$var wire 1 ( clk $end
$var wire 1 E d $end
$var wire 1 Q enable $end
$var wire 1 R reset $end
$var reg 1 J q $end
$upscope $end
$scope module fsGarbage $end
$var wire 1 ( clk $end
$var wire 1 F d $end
$var wire 1 S enable $end
$var wire 1 T reset $end
$var reg 1 I q $end
$upscope $end
$scope module fsStart $end
$var wire 1 ( clk $end
$var wire 1 G d $end
$var wire 1 U enable $end
$var wire 1 V reset $end
$var reg 1 H q $end
$upscope $end
$upscope $end
$upscope $end
$enddefinitions $end
#0
$dumpvars
0V
1U
0T
1S
0R
1Q
0P
1O
0N
1M
xL
xK
xJ
xI
xH
0G
1F
0E
0D
0C
b100000 B
b0 A
bx @
b0 ?
bx >
z=
bz <
bz ;
bx :
bx 9
bx 8
x7
06
b0 5
b0 4
b0 3
b0 2
bx 1
bx 0
0/
bx .
bx -
bx ,
1+
0*
bx )
0(
bx '
x&
x%
1$
x#
x"
x!
$end
#1
0#
0%
1I
0H
0!
0L
0J
0"
0K
0C
0E
0D
1F
0&
07
b0 0
b0 8
b0 @
b0 1
b0 9
b0 >
b100000 ,
0+
1(
bz :
#2
0(
#3
1G
1(
1*
b10101 )
b10101 .
b1111 '
b1111 -
#4
0(
#5
0F
1#
1H
1(
#6
0(
#7
0$
0I
1/
b10101 2
b10101 5
b10101 A
16
b1111 3
b1111 4
b1111 ?
1(
#8
b11001010111111101011101010111110 0
b11001010111111101011101010111110 8
b11001010111111101011101010111110 @
0&
b11001010111111101011101010111110 1
b11001010111111101011101010111110 9
b11001010111111101011101010111110 >
0(
#9
1(
#10
0(
#11
1(
#12
0(
#13
1(
#14
0(
#15
1(
#16
0(
#17
1(
#18
0(
#19
1(
#20
0(
#21
1(
#22
0(
#23
0G
1C
1(
0*
#24
0(
#25
0H
1!
1L
1(
#26
0(
#27
b10100 2
b10100 5
b10100 A
b10000 3
b10000 4
b10000 ?
1(
#28
b11111111111111111111111111111111 0
b11111111111111111111111111111111 8
b11111111111111111111111111111111 @
0&
b11111111111111111111111111111111 1
b11111111111111111111111111111111 9
b11111111111111111111111111111111 >
0(
#29
b10011 2
b10011 5
b10011 A
b10001 3
b10001 4
b10001 ?
1(
#30
b1011001111010001111001010101 0
b1011001111010001111001010101 8
b1011001111010001111001010101 @
0&
07
b1011001111010001111001010101 1
b1011001111010001111001010101 9
b1011001111010001111001010101 >
0(
#31
0C
1D
1$
0/
06
b10010 2
b10010 5
b10010 A
b10010 3
b10010 4
b10010 ?
1(
#32
b1011000100100011111001010111 0
b1011000100100011111001010111 8
b1011000100100011111001010111 @
0&
07
b1011000100100011111001010111 1
b1011000100100011111001010111 9
b1011000100100011111001010111 >
0(
#33
1G
0D
0#
1%
b10001 2
b10001 5
b10001 A
16
b10011 3
b10011 4
b10011 ?
0!
0L
1"
1K
1(
1*
b1110 )
b1110 .
b1011 '
b1011 -
#34
b1011001111010001111001010101 0
b1011001111010001111001010101 8
b1011001111010001111001010101 @
0&
b1011001111010001111001010101 1
b1011001111010001111001010101 9
b1011001111010001111001010101 >
0(
#35
0F
0%
1#
0"
0K
1H
1(
#36
0(
#37
0$
b1110 2
b1110 5
b1110 A
1/
b1011 3
b1011 4
b1011 ?
1(
#38
b10010001101000100001100100001 0
b10010001101000100001100100001 8
b10010001101000100001100100001 @
0&
b10010001101000100001100100001 1
b10010001101000100001100100001 9
b10010001101000100001100100001 >
0(
#39
1(
#40
0(
#41
1(
#42
0(
#43
1(
#44
0(
#45
1(
#46
0(
#47
1(
#48
0(
#49
1(
#50
0(
#51
1(
#52
0(
#53
0G
1C
1(
0*
#54
0(
#55
1!
1L
0H
1(
#56
0(
#57
b1101 2
b1101 5
b1101 A
b1100 3
b1100 4
b1100 ?
1(
#58
b0 0
b0 8
b0 @
0&
07
b0 1
b0 9
b0 >
0(
#59
0C
1D
1$
b1100 2
b1100 5
b1100 A
0/
16
b1101 3
b1101 4
b1101 ?
1(
#60
0(
#61
0#
1%
b1011 2
b1011 5
b1011 A
b1110 3
b1110 4
b1110 ?
0!
0L
1"
1K
1(
#62
b10010001101000100001100100001 0
b10010001101000100001100100001 8
b10010001101000100001100100001 @
0&
b10010001101000100001100100001 1
b10010001101000100001100100001 9
b10010001101000100001100100001 >
0(
#63
1I
06
b0 2
b0 5
b0 A
0/
b0 3
b0 4
b0 ?
0D
b100000 B
1F
1(
1+
#64
b0 1
b0 9
b0 >
0&
b0 0
b0 8
b0 @
0(
#65
0%
0"
0K
1(
#66
0(
#67
1(
#68
0(
#69
1(
#70
0(
#71
1(
#72
0(
#73
1(
0+
#74
0(
#75
1(
#76
0(
#77
1(
#78
0(
#79
1(
#80
0(
#81
1(
#82
0(
#83
1G
1(
1*
b11111 )
b11111 .
b10110 '
b10110 -
#84
0(
#85
0F
1#
1H
1(
#86
0(
#87
0$
0I
1/
b11111 2
b11111 5
b11111 A
16
b10110 3
b10110 4
b10110 ?
1(
#88
b11001010111111101011101010111110 0
b11001010111111101011101010111110 8
b11001010111111101011101010111110 @
0&
b11001010111111101011101010111110 1
b11001010111111101011101010111110 9
b11001010111111101011101010111110 >
0(
#89
1(
#90
0(
#91
1(
#92
0(
#93
1(
#94
0(
#95
1(
#96
0(
#97
1(
#98
0(
#99
1(
#100
0(
#101
1(
#102
0(
#103
0G
1C
1(
0*
#104
0(
#105
0H
1!
1L
1(
#106
0(
#107
b11110 2
b11110 5
b11110 A
b10111 3
b10111 4
b10111 ?
1(
#108
b11111111111111111111111111111111 0
b11111111111111111111111111111111 8
b11111111111111111111111111111111 @
0&
b11111111111111111111111111111111 1
b11111111111111111111111111111111 9
b11111111111111111111111111111111 >
0(
#109
b11101 2
b11101 5
b11101 A
b11000 3
b11000 4
b11000 ?
1(
#110
b1011001111010001111001010101 0
b1011001111010001111001010101 8
b1011001111010001111001010101 @
0&
07
b1011001111010001111001010101 1
b1011001111010001111001010101 9
b1011001111010001111001010101 >
0(
#111
b11100 2
b11100 5
b11100 A
b11001 3
b11001 4
b11001 ?
1(
#112
b1011001111010001111001010011 0
b1011001111010001111001010011 8
b1011001111010001111001010011 @
0&
07
b1011001111010001111001010011 1
b1011001111010001111001010011 9
b1011001111010001111001010011 >
0(
#113
b11011 2
b11011 5
b11011 A
b11010 3
b11010 4
b11010 ?
1(
#114
b1011001111010001111001010110 0
b1011001111010001111001010110 8
b1011001111010001111001010110 @
0&
b1011001111010001111001010110 1
b1011001111010001111001010110 9
b1011001111010001111001010110 >
0(
#115
0C
1D
1$
b11010 2
b11010 5
b11010 A
0/
16
b11011 3
b11011 4
b11011 ?
1(
#116
0(
#117
0#
1%
b11001 2
b11001 5
b11001 A
b11100 3
b11100 4
b11100 ?
0!
0L
1"
1K
1(
#118
b1011001111010001111001010011 0
b1011001111010001111001010011 8
b1011001111010001111001010011 @
0&
07
b1011001111010001111001010011 1
b1011001111010001111001010011 9
b1011001111010001111001010011 >
0(
#119
1(
#120
0(
#121
1(
#122
0(
#123
1G
0D
1(
1*
b1011 )
b1011 .
b111 '
b111 -
#124
0(
#125
0F
1#
0%
1H
0"
0K
1(
#126
0(
#127
0$
b1011 2
b1011 5
b1011 A
1/
b111 3
b111 4
b111 ?
1(
#128
b110011001100110011001100110011 0
b110011001100110011001100110011 8
b110011001100110011001100110011 @
0&
b110011001100110011001100110011 1
b110011001100110011001100110011 9
b110011001100110011001100110011 >
0(
#129
1(
#130
0(
#131
1(
#132
0(
#133
1(
#134
0(
#135
1(
#136
0(
#137
1(
#138
0(
#139
1(
#140
0(
#141
1(
#142
0(
#143
0G
1C
1(
0*
#144
0(
#145
0H
1!
1L
1(
#146
0(
#147
b1010 2
b1010 5
b1010 A
b1000 3
b1000 4
b1000 ?
1(
#148
0C
1E
b10111010101100111101000011010011 0
b10111010101100111101000011010011 8
b10111010101100111101000011010011 @
1&
b11000000000000011101000011010011 1
b11000000000000011101000011010011 9
b11000000000000011101000011010011 >
0(
#149
1$
0#
1%
0/
06
b1001 2
b1001 5
b1001 A
b1001 3
b1001 4
b1001 ?
0!
0L
1J
1(
#150
0&
b11111111111111111111111111111111 0
b11111111111111111111111111111111 8
b11111111111111111111111111111111 @
b11111111111111111111111111111111 1
b11111111111111111111111111111111 9
b11111111111111111111111111111111 >
0(
#151
1(
#152
0(
#153
1G
0E
1(
1*
b110 )
b110 .
b10 '
b10 -
#154
0(
#155
0%
1#
0J
1H
1(
#156
0(
#157
0$
b110 2
b110 5
b110 A
1/
16
b10 3
b10 4
b10 ?
1(
#158
b11001010111111101011101010111110 0
b11001010111111101011101010111110 8
b11001010111111101011101010111110 @
0&
07
b11001010111111101011101010111110 1
b11001010111111101011101010111110 9
b11001010111111101011101010111110 >
0(
#159
1(
#160
0(
#161
1(
#162
0(
#163
1(
#164
0(
#165
1(
#166
0(
#167
1(
#168
0(
#169
1(
#170
0(
#171
1(
#172
0(
#173
0G
1C
1(
0*
#174
0(
#175
1!
1L
0H
1(
#176
0(
#177
b101 2
b101 5
b101 A
b11 3
b11 4
b11 ?
1(
#178
b11111111111111111111111111111111 0
b11111111111111111111111111111111 8
b11111111111111111111111111111111 @
0&
b11111111111111111111111111111111 1
b11111111111111111111111111111111 9
b11111111111111111111111111111111 >
0(
#179
0C
1D
1$
0/
06
b100 2
b100 5
b100 A
b100 3
b100 4
b100 ?
1(
#180
b1011001111010001111001010101 0
b1011001111010001111001010101 8
b1011001111010001111001010101 @
0&
07
b1011001111010001111001010101 1
b1011001111010001111001010101 9
b1011001111010001111001010101 >
0(
#181
0#
1%
b11 2
b11 5
b11 A
16
b101 3
b101 4
b101 ?
0!
0L
1"
1K
1(
#182
b11111111111111111111111111111111 0
b11111111111111111111111111111111 8
b11111111111111111111111111111111 @
0&
b11111111111111111111111111111111 1
b11111111111111111111111111111111 9
b11111111111111111111111111111111 >
0(
