cs233/exam/exam3/p1/m.vcd
$date
	Tue Mar  6 12:15:42 2018
$end
$version
	Icarus Verilog
$end
$timescale
	1s
$end
$scope module test $end
$var wire 32 ! PC [31:0] $end
$var reg 1 " clk $end
$var reg 1 # done $end
$var reg 1 $ reset $end
$var integer 32 % i [31:0] $end
$scope module m $end
$var wire 1 & PCSrc $end
$var wire 1 " clk $end
$var wire 1 $ reset $end
$var wire 1 ' zero $end
$var wire 5 ( wr_regnum [4:0] $end
$var wire 32 ) wr_data [31:0] $end
$var wire 5 * rt [4:0] $end
$var wire 5 + rs [4:0] $end
$var wire 32 , rd2_data [31:0] $end
$var wire 32 - rd1_data [31:0] $end
$var wire 5 . rd [4:0] $end
$var wire 6 / opcode [5:0] $end
$var wire 30 0 next_PC [31:2] $end
$var wire 1 1 negative $end
$var wire 32 2 load_data [31:0] $end
$var wire 1 3 jalr $end
$var wire 32 4 inst [31:0] $end
$var wire 32 5 imm [31:0] $end
$var wire 6 6 funct [5:0] $end
$var wire 32 7 alu_out_data [31:0] $end
$var wire 1 8 RegWrite $end
$var wire 5 9 RegDst_out [4:0] $end
$var wire 1 : RegDst $end
$var wire 30 ; PC_target [31:2] $end
$var wire 30 < PC_plus4 [31:2] $end
$var wire 30 = PC_IN [31:2] $end
$var wire 32 > PC [31:0] $end
$var wire 1 ? MemWrite $end
$var wire 32 @ MemToReg_out [31:0] $end
$var wire 1 A MemToReg $end
$var wire 1 B MemRead $end
$var wire 32 C B_data [31:0] $end
$var wire 1 D BEQ $end
$var wire 1 E ALUSrc $end
$var wire 3 F ALUOp [2:0] $end
$scope module PC_reg $end
$var wire 1 " clk $end
$var wire 1 G enable $end
$var wire 1 $ reset $end
$var wire 30 H d [29:0] $end
$var reg 30 I q [29:0] $end
$upscope $end
$scope module alu $end
$var wire 32 J out [31:0] $end
$var wire 1 ' zero $end
$var wire 1 1 negative $end
$var wire 32 K inB [31:0] $end
$var wire 32 L inA [31:0] $end
$var wire 3 M control [2:0] $end
$upscope $end
$scope module branch_mux $end
$var wire 30 N out [29:0] $end
$var wire 1 & sel $end
$var wire 30 O temp1 [29:0] $end
$var wire 30 P temp2 [29:0] $end
$var wire 30 Q B [29:0] $end
$var wire 30 R A [29:0] $end
$upscope $end
$scope module data_memory $end
$var wire 32 S addr [31:0] $end
$var wire 1 " clk $end
$var wire 32 T d_out [31:0] $end
$var wire 32 U data_out [31:0] $end
$var wire 32 V internal_data_in [31:0] $end
$var wire 1 $ reset $end
$var wire 1 W valid_address $end
$var wire 1 ? mem_write $end
$var wire 1 B mem_read $end
$var wire 19 X index [18:0] $end
$var wire 32 Y data_in [31:0] $end
$var integer 32 Z i [31:0] $end
$upscope $end
$scope module datamux $end
$var wire 32 [ B [31:0] $end
$var wire 32 \ out [31:0] $end
$var wire 32 ] temp1 [31:0] $end
$var wire 32 ^ temp2 [31:0] $end
$var wire 1 3 sel $end
$var wire 32 _ A [31:0] $end
$upscope $end
$scope module decode $end
$var wire 6 ` funct [5:0] $end
$var wire 1 3 jalr $end
$var wire 3 a new_ALUOp [2:0] $end
$var wire 1 b new_ALUSrc $end
$var wire 1 c new_BEQ $end
$var wire 1 d new_MemRead $end
$var wire 1 e new_MemToReg $end
$var wire 1 f new_MemWrite $end
$var wire 1 g new_RegDst $end
$var wire 1 h new_RegWrite $end
$var wire 1 i new_inst $end
$var wire 6 j opcode [5:0] $end
$var wire 1 k given_RegWrite $end
$var wire 1 l given_RegDst $end
$var wire 1 m given_MemWrite $end
$var wire 1 n given_MemToReg $end
$var wire 1 o given_MemRead $end
$var wire 1 p given_BEQ $end
$var wire 1 q given_ALUSrc $end
$var wire 3 r given_ALUOp [2:0] $end
$var wire 1 8 RegWrite $end
$var wire 1 : RegDst $end
$var wire 1 ? MemWrite $end
$var wire 1 A MemToReg $end
$var wire 1 B MemRead $end
$var wire 1 D BEQ $end
$var wire 1 E ALUSrc $end
$var wire 3 s ALUOp [2:0] $end
$scope module ALUOp_mux $end
$var wire 3 t B [2:0] $end
$var wire 3 u out [2:0] $end
$var wire 1 i sel $end
$var wire 3 v temp1 [2:0] $end
$var wire 3 w temp2 [2:0] $end
$var wire 3 x A [2:0] $end
$upscope $end
$scope module ALUSrc_mux $end
$var wire 1 b B $end
$var wire 1 E out $end
$var wire 1 i sel $end
$var wire 1 y temp1 $end
$var wire 1 z temp2 $end
$var wire 1 q A $end
$upscope $end
$scope module BEQ_mux $end
$var wire 1 c B $end
$var wire 1 D out $end
$var wire 1 i sel $end
$var wire 1 { temp1 $end
$var wire 1 | temp2 $end
$var wire 1 p A $end
$upscope $end
$scope module MemRead_mux $end
$var wire 1 d B $end
$var wire 1 B out $end
$var wire 1 i sel $end
$var wire 1 } temp1 $end
$var wire 1 ~ temp2 $end
$var wire 1 o A $end
$upscope $end
$scope module MemToReg_mux $end
$var wire 1 e B $end
$var wire 1 A out $end
$var wire 1 i sel $end
$var wire 1 !" temp1 $end
$var wire 1 "" temp2 $end
$var wire 1 n A $end
$upscope $end
$scope module MemWrite_mux $end
$var wire 1 f B $end
$var wire 1 ? out $end
$var wire 1 i sel $end
$var wire 1 #" temp1 $end
$var wire 1 $" temp2 $end
$var wire 1 m A $end
$upscope $end
$scope module RegDst_mux $end
$var wire 1 g B $end
$var wire 1 : out $end
$var wire 1 i sel $end
$var wire 1 %" temp1 $end
$var wire 1 &" temp2 $end
$var wire 1 l A $end
$upscope $end
$scope module RegWrite_mux $end
$var wire 1 h B $end
$var wire 1 8 out $end
$var wire 1 i sel $end
$var wire 1 '" temp1 $end
$var wire 1 (" temp2 $end
$var wire 1 k A $end
$upscope $end
$scope module given $end
$var wire 1 q ALUSrc $end
$var wire 1 n MemToReg $end
$var wire 1 l RegDst $end
$var wire 1 k RegWrite $end
$var wire 6 )" funct [5:0] $end
$var wire 1 *" nop $end
$var wire 6 +" opcode [5:0] $end
$var wire 1 ," op0 $end
$var wire 1 m MemWrite $end
$var wire 1 o MemRead $end
$var wire 1 p BEQ $end
$var wire 3 -" ALUOp [2:0] $end
$upscope $end
$upscope $end
$scope module imem $end
$var wire 30 ." addr [29:0] $end
$var wire 32 /" data [31:0] $end
$var reg 32 0" i [31:0] $end
$upscope $end
$scope module imm_mux $end
$var wire 32 1" B [31:0] $end
$var wire 32 2" out [31:0] $end
$var wire 1 E sel $end
$var wire 32 3" temp1 [31:0] $end
$var wire 32 4" temp2 [31:0] $end
$var wire 32 5" A [31:0] $end
$upscope $end
$scope module next_PC_adder $end
$var wire 30 6" in1 [29:0] $end
$var wire 30 7" in2 [29:0] $end
$var wire 30 8" out [29:0] $end
$upscope $end
$scope module pcmux $end
$var wire 30 9" A [29:0] $end
$var wire 30 :" B [29:0] $end
$var wire 30 ;" out [29:0] $end
$var wire 1 3 sel $end
$var wire 30 <" temp1 [29:0] $end
$var wire 30 =" temp2 [29:0] $end
$upscope $end
$scope module rd_mux $end
$var wire 5 >" A [4:0] $end
$var wire 5 ?" B [4:0] $end
$var wire 5 @" out [4:0] $end
$var wire 1 : sel $end
$var wire 5 A" temp1 [4:0] $end
$var wire 5 B" temp2 [4:0] $end
$upscope $end
$scope module rf $end
$var wire 1 " clock $end
$var wire 32 C" internal_rdData [31:0] $end
$var wire 32 D" rdData [31:0] $end
$var wire 1 8 rdWriteEnable $end
$var wire 1 $ reset $end
$var wire 32 E" rsData [31:0] $end
$var wire 5 F" rsNum [4:0] $end
$var wire 32 G" rtData [31:0] $end
$var wire 5 H" rtNum [4:0] $end
$var wire 5 I" rdNum [4:0] $end
$var integer 32 J" i [31:0] $end
$upscope $end
$scope module target_PC_adder $end
$var wire 30 K" in1 [29:0] $end
$var wire 30 L" in2 [29:0] $end
$var wire 30 M" out [29:0] $end
$upscope $end
$scope module wb_mux $end
$var wire 32 N" A [31:0] $end
$var wire 32 O" B [31:0] $end
$var wire 32 P" out [31:0] $end
$var wire 1 A sel $end
$var wire 32 Q" temp1 [31:0] $end
$var wire 32 R" temp2 [31:0] $end
$upscope $end
$scope module wrireg_mux $end
$var wire 5 S" A [4:0] $end
$var wire 5 T" B [4:0] $end
$var wire 5 U" out [4:0] $end
$var wire 1 3 sel $end
$var wire 5 V" temp1 [4:0] $end
$var wire 5 W" temp2 [4:0] $end
$upscope $end
$upscope $end
$upscope $end
$scope module test $end
$scope module m $end
$scope module rf $end
$var reg 32 X" \r[0] [31:0] $end
$upscope $end
$upscope $end
$upscope $end
$scope module test $end
$scope module m $end
$scope module rf $end
$var reg 32 Y" \r[1] [31:0] $end
$upscope $end
$upscope $end
$upscope $end
$scope module test $end
$scope module m $end
$scope module rf $end
$var reg 32 Z" \r[2] [31:0] $end
$upscope $end
$upscope $end
$upscope $end
$scope module test $end
$scope module m $end
$scope module rf $end
$var reg 32 [" \r[3] [31:0] $end
$upscope $end
$upscope $end
$upscope $end
$scope module test $end
$scope module m $end
$scope module rf $end
$var reg 32 \" \r[4] [31:0] $end
$upscope $end
$upscope $end
$upscope $end
$scope module test $end
$scope module m $end
$scope module rf $end
$var reg 32 ]" \r[5] [31:0] $end
$upscope $end
$upscope $end
$upscope $end
$scope module test $end
$scope module m $end
$scope module rf $end
$var reg 32 ^" \r[6] [31:0] $end
$upscope $end
$upscope $end
$upscope $end
$scope module test $end
$scope module m $end
$scope module rf $end
$var reg 32 _" \r[7] [31:0] $end
$upscope $end
$upscope $end
$upscope $end
$scope module test $end
$scope module m $end
$scope module rf $end
$var reg 32 `" \r[8] [31:0] $end
$upscope $end
$upscope $end
$upscope $end
$scope module test $end
$scope module m $end
$scope module rf $end
$var reg 32 a" \r[9] [31:0] $end
$upscope $end
$upscope $end
$upscope $end
$scope module test $end
$scope module m $end
$scope module rf $end
$var reg 32 b" \r[10] [31:0] $end
$upscope $end
$upscope $end
$upscope $end
$scope module test $end
$scope module m $end
$scope module rf $end
$var reg 32 c" \r[11] [31:0] $end
$upscope $end
$upscope $end
$upscope $end
$scope module test $end
$scope module m $end
$scope module rf $end
$var reg 32 d" \r[12] [31:0] $end
$upscope $end
$upscope $end
$upscope $end
$scope module test $end
$scope module m $end
$scope module rf $end
$var reg 32 e" \r[13] [31:0] $end
$upscope $end
$upscope $end
$upscope $end
$scope module test $end
$scope module m $end
$scope module rf $end
$var reg 32 f" \r[14] [31:0] $end
$upscope $end
$upscope $end
$upscope $end
$scope module test $end
$scope module m $end
$scope module rf $end
$var reg 32 g" \r[15] [31:0] $end
$upscope $end
$upscope $end
$upscope $end
$scope module test $end
$scope module m $end
$scope module rf $end
$var reg 32 h" \r[16] [31:0] $end
$upscope $end
$upscope $end
$upscope $end
$scope module test $end
$scope module m $end
$scope module rf $end
$var reg 32 i" \r[17] [31:0] $end
$upscope $end
$upscope $end
$upscope $end
$scope module test $end
$scope module m $end
$scope module rf $end
$var reg 32 j" \r[18] [31:0] $end
$upscope $end
$upscope $end
$upscope $end
$scope module test $end
$scope module m $end
$scope module rf $end
$var reg 32 k" \r[19] [31:0] $end
$upscope $end
$upscope $end
$upscope $end
$scope module test $end
$scope module m $end
$scope module rf $end
$var reg 32 l" \r[20] [31:0] $end
$upscope $end
$upscope $end
$upscope $end
$scope module test $end
$scope module m $end
$scope module rf $end
$var reg 32 m" \r[21] [31:0] $end
$upscope $end
$upscope $end
$upscope $end
$scope module test $end
$scope module m $end
$scope module rf $end
$var reg 32 n" \r[22] [31:0] $end
$upscope $end
$upscope $end
$upscope $end
$scope module test $end
$scope module m $end
$scope module rf $end
$var reg 32 o" \r[23] [31:0] $end
$upscope $end
$upscope $end
$upscope $end
$scope module test $end
$scope module m $end
$scope module rf $end
$var reg 32 p" \r[24] [31:0] $end
$upscope $end
$upscope $end
$upscope $end
$scope module test $end
$scope module m $end
$scope module rf $end
$var reg 32 q" \r[25] [31:0] $end
$upscope $end
$upscope $end
$upscope $end
$scope module test $end
$scope module m $end
$scope module rf $end
$var reg 32 r" \r[26] [31:0] $end
$upscope $end
$upscope $end
$upscope $end
$scope module test $end
$scope module m $end
$scope module rf $end
$var reg 32 s" \r[27] [31:0] $end
$upscope $end
$upscope $end
$upscope $end
$scope module test $end
$scope module m $end
$scope module rf $end
$var reg 32 t" \r[28] [31:0] $end
$upscope $end
$upscope $end
$upscope $end
$scope module test $end
$scope module m $end
$scope module rf $end
$var reg 32 u" \r[29] [31:0] $end
$upscope $end
$upscope $end
$upscope $end
$scope module test $end
$scope module m $end
$scope module rf $end
$var reg 32 v" \r[30] [31:0] $end
$upscope $end
$upscope $end
$upscope $end
$scope module test $end
$scope module m $end
$scope module rf $end
$var reg 32 w" \r[31] [31:0] $end
$upscope $end
$upscope $end
$upscope $end
$enddefinitions $end
#0
$dumpvars
b10000000000010000000000000000 w"
b10000000000010000000000000000 v"
b10000000000010000000000000000 u"
b10000000000010000000000000000 t"
b10000000000010000000000000000 s"
b10000000000010000000000000000 r"
b10000000000010000000000000000 q"
b10000000000010000000000000000 p"
b10000000000010000000000000000 o"
b10000000000010000000000000000 n"
b10000000000010000000000000000 m"
b10000000000010000000000000000 l"
b10000000000010000000000000000 k"
b10000000000010000000000000000 j"
b10000000000010000000000000000 i"
b10000000000010000000000000000 h"
b10000000000010000000000000000 g"
b10000000000010000000000000000 f"
b10000000000010000000000000000 e"
b10000000000010000000000000000 d"
b10000000000010000000000000000 c"
b10000000000010000000000000000 b"
b10000000000010000000000000000 a"
b10000000000010000000000000000 `"
b10000000000010000000000000000 _"
b10000000000010000000000000000 ^"
b10000000000010000000000000000 ]"
b10000000000010000000000000000 \"
b10000000000010000000000000000 ["
b10000000000010000000000000000 Z"
b10000000000010000000000000000 Y"
b0 X"
bx W"
bx V"
bx U"
b11111 T"
bx S"
bx R"
bx Q"
bx P"
bx O"
bx N"
bx M"
bx L"
bx K"
b100000 J"
bx I"
bx H"
bx G"
bx F"
bx E"
bx D"
bx C"
bx B"
bx A"
bx @"
bx ?"
bx >"
bx ="
bx <"
bx ;"
bx :"
bx 9"
bx 8"
b1 7"
bx 6"
bx 5"
bx 4"
bx 3"
bx 2"
bx 1"
b100000000 0"
bx /"
bx ."
bx -"
x,"
bx +"
x*"
bx )"
x("
x'"
0&"
x%"
0$"
x#"
0""
x!"
0~
x}
0|
x{
0z
xy
bx x
b0 w
bx v
bx u
b0 t
bx s
bx r
xq
xp
xo
xn
xm
xl
xk
bx j
xi
1h
0g
0f
0e
0d
0c
0b
b0 a
bx `
bx _
bx00 ^
bx ]
bx \
bx00 [
b1000000000000000000 Z
bx Y
bx X
xW
bx V
bx U
bx T
bx S
bx R
bx Q
bx P
bx O
bx N
bx M
bx L
bx K
bx J
bx I
bx H
1G
bx F
xE
xD
bx C
xB
xA
bx @
x?
bx00 >
bx =
bx <
bx ;
x:
bx 9
x8
bx 7
bx 6
bx 5
bx 4
x3
bx 2
x1
bx 0
bx /
bx .
bx -
bx ,
bx +
bx *
bx )
bx (
x'
x&
b100000 %
1$
0#
0"
bx00 !
$end
#5
b10110 C"
b10110 )
b10110 \
b10110 D"
b10110 ]
b10110 @
b10110 _
b10110 P"
b10110 R"
b10110 2
b10110 U
b10110 O"
b10110 T
1W
0'
b100000000000000 X
b0 F
b0 M
b0 s
b0 u
01
b0 v
b10000000000010000000000000000 7
b10000000000010000000000000000 J
b10000000000010000000000000000 S
b10000000000010000000000000000 N"
b0 r
b0 x
b0 -"
18
b100000000000000000001 =
b100000000000000000001 H
b100000000000000000001 ;"
b0 Q"
1'"
b100000000000000000001 <"
b10 (
b10 I"
b10 U"
1B
1A
0&
0:
1E
1k
b100000000000000000001 0
b100000000000000000001 N
b100000000000000000001 9"
b10 V"
b0 W"
1}
1!"
0("
0D
0%"
1y
0?
b10 9
b10 @"
b10 S"
b0 ="
b0 P
b0 C
b0 K
b0 2"
03
0i
0{
0l
1q
0#"
0*"
b0 B"
b10 A"
b0 3"
b100000000000100000000000000 :"
b100000000000000000001 ;
b100000000000000000001 Q
b100000000000000000001 M"
b0 L"
b0 4"
b0 6
b0 `
b0 )"
0p
1n
1o
0m
0,"
b100011 /
b100011 j
b100011 +"
b0 .
b0 ?"
b10000000000010000000000000000 V
b10000000000010000000000000000 ,
b10000000000010000000000000000 Y
b10000000000010000000000000000 5"
b10000000000010000000000000000 G"
b10 *
b10 >"
b10 H"
b10000000000010000000000000000 -
b10000000000010000000000000000 L
b10000000000010000000000000000 E"
b11100 +
b11100 F"
b0 5
b0 1"
b100000000000000000001 O
b0 ^
b10001111100000100000000000000000 4
b10001111100000100000000000000000 /"
b10000000000000000000100 [
b100000000000000000001 <
b100000000000000000001 R
b100000000000000000001 8"
b100000000000000000001 K"
b100000000000000000000 6"
b100000000000000000000 ."
b10000000000000000000000 >
b10000000000000000000000 !
b100000000000000000000 I
1"
#7
0$
#10
0"
#15
b101010 C"
b101010 )
b101010 \
b101010 D"
b101010 ]
b101010 @
b101010 _
b101010 P"
b101010 R"
b101010 2
b101010 U
b101010 O"
b101010 T
b100000000000001 X
b10000000000010000000000000100 7
b10000000000010000000000000100 J
b10000000000010000000000000100 S
b10000000000010000000000000100 N"
b11 (
b11 I"
b11 U"
b11 V"
b100000000000000000010 =
b100000000000000000010 H
b100000000000000000010 ;"
b11 9
b11 @"
b11 S"
b100 C
b100 K
b100 2"
b100000000000000000010 <"
b11 A"
b100 L"
b100 4"
b100000000000000000010 0
b100000000000000000010 N
b100000000000000000010 9"
b100 6
b100 `
b100 )"
b11 *
b11 >"
b11 H"
b100 5
b100 1"
b100000000000000000010 O
b10001111100000110000000000000100 4
b10001111100000110000000000000100 /"
b100000000000000000110 ;
b100000000000000000110 Q
b100000000000000000110 M"
b10000000000000000001000 [
b100000000000000000010 <
b100000000000000000010 R
b100000000000000000010 8"
b100000000000000000010 K"
b100000000000000000001 6"
b100000000000000000001 ."
b10110 Z"
b10000000000010000000000000000 V
b10000000000010000000000000000 ,
b10000000000010000000000000000 Y
b10000000000010000000000000000 5"
b10000000000010000000000000000 G"
b10000000000000000000100 >
b10000000000000000000100 !
b100000000000000000001 I
1"
#20
0"
#25
b100 (
b100 I"
b100 U"
b100 V"
b1000000 C"
b1000000 )
b1000000 \
b1000000 D"
b100 9
b100 @"
b100 S"
b1000000 ]
b11011110101011011011111011101111 T
b10000 X
b0 A"
b100 B"
b1000000 @
b1000000 _
b1000000 P"
b101010 3"
0W
1:
b1000000 Q"
b0 R"
0E
b0 2
b0 U
b0 O"
b1000000 7
b1000000 J
b1000000 S
b1000000 N"
b100000000000000000011 =
b100000000000000000011 H
b100000000000000000011 ;"
1%"
0A
0y
0B
b101010 C
b101010 K
b101010 2"
b100000000000000000011 <"
1l
0!"
0q
0}
b101 :"
b10000000100000 L"
b0 4"
b100000000000000000011 0
b100000000000000000011 N
b100000000000000000011 9"
b100000 6
b100000 `
b100000 )"
0n
0o
1,"
b0 /
b0 j
b0 +"
b100 .
b100 ?"
b10110 -
b10110 L
b10110 E"
b10 +
b10 F"
b10000000100000 5
b10000000100000 1"
b100000000000000000011 O
b10000110010000000100000 4
b10000110010000000100000 /"
b100000010000000100011 ;
b100000010000000100011 Q
b100000010000000100011 M"
b10000000000000000001100 [
b100000000000000000011 <
b100000000000000000011 R
b100000000000000000011 8"
b100000000000000000011 K"
b100000000000000000010 6"
b100000000000000000010 ."
b10000000000000000001000 >
b10000000000000000001000 !
b100000000000000000010 I
b101010 ["
b101010 V
b101010 ,
b101010 Y
b101010 5"
b101010 G"
1"
#30
0"
#35
bx T
11
b1 F
b1 M
b1 s
b1 u
b1 v
b1 r
b1 x
b1 -"
b11111111111111111111111111010110 C"
b11111111111111111111111111010110 )
b11111111111111111111111111010110 \
b11111111111111111111111111010110 D"
b11111111111111111111111111010110 ]
b1111111111111110101 X
b11111111111111111111111111010110 @
b11111111111111111111111111010110 _
b11111111111111111111111111010110 P"
b11111111111111111111111111010110 Q"
b11111111111111111111111111010110 7
b11111111111111111111111111010110 J
b11111111111111111111111111010110 S
b11111111111111111111111111010110 N"
b101 (
b101 I"
b101 U"
b101 V"
b100000000000000000100 =
b100000000000000000100 H
b100000000000000000100 ;"
b101 9
b101 @"
b101 S"
b1000000 C
b1000000 K
b1000000 2"
b100000000000000000100 <"
b101 B"
b1000000 3"
b10100000100010 L"
b100000000000000000100 0
b100000000000000000100 N
b100000000000000000100 9"
b100010 6
b100010 `
b100010 )"
b101 .
b101 ?"
b1000000 V
b1000000 ,
b1000000 Y
b1000000 5"
b1000000 G"
b100 *
b100 >"
b100 H"
b10100000100010 5
b10100000100010 1"
b100000000000000000100 O
b10001000010100000100010 4
b10001000010100000100010 /"
b100000010100000100110 ;
b100000010100000100110 Q
b100000010100000100110 M"
b10000000000000000010000 [
b100000000000000000100 <
b100000000000000000100 R
b100000000000000000100 8"
b100000000000000000100 K"
b100000000000000000011 6"
b100000000000000000011 ."
b1000000 \"
b10000000000000000001100 >
b10000000000000000001100 !
b100000000000000000011 I
1"
#40
0"
#45
0'
b10 F
b10 M
b10 s
b10 u
b10 v
b10 r
b10 x
b10 -"
b11011110101011011011111011101111 T
b10 C"
b10 )
b10 \
b10 D"
01
b10 ]
b110 (
b110 I"
b110 U"
b0 X
b10 @
b10 _
b10 P"
b110 V"
b10 Q"
b100000000000000000101 =
b100000000000000000101 H
b100000000000000000101 ;"
b110 9
b110 @"
b110 S"
b11111111111111111111111111010110 C
b11111111111111111111111111010110 K
b11111111111111111111111111010110 2"
b10 7
b10 J
b10 S
b10 N"
b100000000000000000101 <"
b110 B"
b11111111111111111111111111010110 3"
b1010 :"
b11000000100100 L"
b100000000000000000101 0
b100000000000000000101 N
b100000000000000000101 9"
b100100 6
b100100 `
b100100 )"
b110 .
b110 ?"
b11111111111111111111111111010110 V
b11111111111111111111111111010110 ,
b11111111111111111111111111010110 Y
b11111111111111111111111111010110 5"
b11111111111111111111111111010110 G"
b101 *
b101 >"
b101 H"
b101010 -
b101010 L
b101010 E"
b11 +
b11 F"
b11000000100100 5
b11000000100100 1"
b100000000000000000101 O
b11001010011000000100100 4
b11001010011000000100100 /"
b100000011000000101001 ;
b100000011000000101001 Q
b100000011000000101001 M"
b10000000000000000010100 [
b100000000000000000101 <
b100000000000000000101 R
b100000000000000000101 8"
b100000000000000000101 K"
b100000000000000000100 6"
b100000000000000000100 ."
b10000000000000000010000 >
b10000000000000000010000 !
b100000000000000000100 I
b11111111111111111111111111010110 ]"
1"
#50
0"
#55
b11 F
b11 M
b11 s
b11 u
b111110 C"
b111110 )
b111110 \
b111110 D"
b11 v
b111110 ]
b11 r
b11 x
b11 -"
b1111 X
b111110 @
b111110 _
b111110 P"
b111110 Q"
b111110 7
b111110 J
b111110 S
b111110 N"
b111 (
b111 I"
b111 U"
b111 V"
b100000000000000000110 =
b100000000000000000110 H
b100000000000000000110 ;"
b111 9
b111 @"
b111 S"
b101010 C
b101010 K
b101010 2"
b100000000000000000110 <"
b111 B"
b101010 3"
b101 :"
b11100000100101 L"
b100000000000000000110 0
b100000000000000000110 N
b100000000000000000110 9"
b100101 6
b100101 `
b100101 )"
b111 .
b111 ?"
b101010 V
b101010 ,
b101010 Y
b101010 5"
b101010 G"
b11 *
b11 >"
b11 H"
b10110 -
b10110 L
b10110 E"
b10 +
b10 F"
b11100000100101 5
b11100000100101 1"
b100000000000000000110 O
b10000110011100000100101 4
b10000110011100000100101 /"
b100000011100000101011 ;
b100000011100000101011 Q
b100000011100000101011 M"
b10000000000000000011000 [
b100000000000000000110 <
b100000000000000000110 R
b100000000000000000110 8"
b100000000000000000110 K"
b100000000000000000101 6"
b100000000000000000101 ."
b10 ^"
b10000000000000000010100 >
b10000000000000000010100 !
b100000000000000000101 I
1"
#60
0"
#65
1'
b0 C"
b0 )
b0 \
b0 D"
b0 ]
b11011110101011011011111011101111 T
b0 X
b0 @
b0 _
b0 P"
b100 F
b100 M
b100 s
b100 u
01
b0 Q"
b100 v
b0 7
b0 J
b0 S
b0 N"
b100 r
b100 x
b100 -"
b1000 (
b1000 I"
b1000 U"
b1000 V"
b100000000000000000111 =
b100000000000000000111 H
b100000000000000000111 ;"
b1000 9
b1000 @"
b1000 S"
b11111111111111111111111111010110 C
b11111111111111111111111111010110 K
b11111111111111111111111111010110 2"
b100000000000000000111 <"
b1000 B"
b11111111111111111111111111010110 3"
b100000000101010 L"
b100000000000000000111 0
b100000000000000000111 N
b100000000000000000111 9"
b101010 6
b101010 `
b101010 )"
b1000 .
b1000 ?"
b11111111111111111111111111010110 V
b11111111111111111111111111010110 ,
b11111111111111111111111111010110 Y
b11111111111111111111111111010110 5"
b11111111111111111111111111010110 G"
b101 *
b101 >"
b101 H"
b100000000101010 5
b100000000101010 1"
b100000000000000000111 O
b10001010100000000101010 4
b10001010100000000101010 /"
b100000100000000110001 ;
b100000100000000110001 Q
b100000100000000110001 M"
b10000000000000000011100 [
b100000000000000000111 <
b100000000000000000111 R
b100000000000000000111 8"
b100000000000000000111 K"
b100000000000000000110 6"
b100000000000000000110 ."
b10000000000000000011000 >
b10000000000000000011000 !
b100000000000000000110 I
b111110 _"
1"
#70
0"
#75
b1 C"
b1 )
b1 \
b1 D"
b1 ]
b1 @
b1 _
b1 P"
b1 Q"
0'
b1 7
b1 J
b1 S
b1 N"
b1001 (
b1001 I"
b1001 U"
b1001 V"
b100000000000000001000 =
b100000000000000001000 H
b100000000000000001000 ;"
b1001 9
b1001 @"
b1001 S"
b101010 C
b101010 K
b101010 2"
b100000000000000001000 <"
b1001 B"
b101010 3"
b0 :"
b100100000101010 L"
b100000000000000001000 0
b100000000000000001000 N
b100000000000000001000 9"
b1001 .
b1001 ?"
b101010 V
b101010 ,
b101010 Y
b101010 5"
b101010 G"
b11 *
b11 >"
b11 H"
b10 -
b10 L
b10 E"
b110 +
b110 F"
b100100000101010 5
b100100000101010 1"
b100000000000000001000 O
b110000110100100000101010 4
b110000110100100000101010 /"
b100000100100000110010 ;
b100000100100000110010 Q
b100000100100000110010 M"
b10000000000000000100000 [
b100000000000000001000 <
b100000000000000001000 R
b100000000000000001000 8"
b100000000000000001000 K"
b100000000000000000111 6"
b100000000000000000111 ."
b0 `"
b10000000000000000011100 >
b10000000000000000011100 !
b100000000000000000111 I
1"
#80
0"
#85
bx T
b1111111111111111111 X
b11111111111111111111111111111111 C"
b11111111111111111111111111111111 )
b11111111111111111111111111111111 \
b11111111111111111111111111111111 D"
11
b11111111111111111111111111111111 ]
b0 P
b11111111111111111111111111111111 @
b11111111111111111111111111111111 _
b11111111111111111111111111111111 P"
0&
b11111111111111111111111111111111 Q"
0'
b11111111111111111111111111111111 7
b11111111111111111111111111111111 J
b11111111111111111111111111111111 S
b11111111111111111111111111111111 N"
08
b1 F
b1 M
b1 s
b1 u
0'"
b1 v
b0 (
b0 I"
b0 U"
0k
b1 r
b1 x
b1 -"
b0 V"
b100000000000000001001 =
b100000000000000001001 H
b100000000000000001001 ;"
1D
b0 9
b0 @"
b0 S"
b1 C
b1 K
b1 2"
b100000000000000001001 <"
1{
b0 B"
b1 3"
b11 L"
b100000000000000001001 0
b100000000000000001001 N
b100000000000000001001 9"
b11 6
b11 `
b11 )"
1p
0,"
b100 /
b100 j
b100 +"
b0 .
b0 ?"
b1 V
b1 ,
b1 Y
b1 5"
b1 G"
b1001 *
b1001 >"
b1001 H"
b0 -
b0 L
b0 E"
b1000 +
b1000 F"
b11 5
b11 1"
b100000000000000001001 O
b10001000010010000000000000011 4
b10001000010010000000000000011 /"
b100000000000000001100 ;
b100000000000000001100 Q
b100000000000000001100 M"
b10000000000000000100100 [
b100000000000000001001 <
b100000000000000001001 R
b100000000000000001001 8"
b100000000000000001001 K"
b100000000000000001000 6"
b100000000000000001000 ."
b10000000000000000100000 >
b10000000000000000100000 !
b100000000000000001000 I
b1 a"
1"
#90
0"
#95
b10000000000010000000000000000 C"
b10000000000010000000000000000 )
b10000000000010000000000000000 \
b10000000000010000000000000000 D"
b0 F
b0 M
b0 s
b0 u
b10000000000010000000000000000 ]
b0 v
b10110 T
b100000000000000 X
b10000000000010000000000000000 @
b10000000000010000000000000000 _
b10000000000010000000000000000 P"
1E
b0 r
b0 x
b0 -"
01
1W
b10000000000010000000000000000 Q"
b100000000000000001010 =
b100000000000000001010 H
b100000000000000001010 ;"
0D
1y
1?
b0 C
b0 K
b0 2"
b10000000000010000000000000000 7
b10000000000010000000000000000 J
b10000000000010000000000000000 S
b10000000000010000000000000000 N"
b100000000000000001010 <"
0{
1q
1#"
b0 3"
b100000000000100000000000000 :"
b0 L"
b100000000000000001010 0
b100000000000000001010 N
b100000000000000001010 9"
b0 6
b0 `
b0 )"
0p
1m
b101011 /
b101011 j
b101011 +"
b101010 V
b101010 ,
b101010 Y
b101010 5"
b101010 G"
b11 *
b11 >"
b11 H"
b10000000000010000000000000000 -
b10000000000010000000000000000 L
b10000000000010000000000000000 E"
b11100 +
b11100 F"
b0 5
b0 1"
b100000000000000001010 O
b10101111100000110000000000000000 4
b10101111100000110000000000000000 /"
b100000000000000001010 ;
b100000000000000001010 Q
b100000000000000001010 M"
b10000000000000000101000 [
b100000000000000001010 <
b100000000000000001010 R
b100000000000000001010 8"
b100000000000000001010 K"
b100000000000000001001 6"
b100000000000000001001 ."
b10000000000000000100100 >
b10000000000000000100100 !
b100000000000000001001 I
1"
#100
0"
