cs233/exam/exam3/p2/m.vcd
$date
	Tue Mar  6 16:41:40 2018
$end
$version
	Icarus Verilog
$end
$timescale
	1s
$end
$scope module test $end
$var wire 32 ! PC [31:0] $end
$var reg 1 " clk $end
$var reg 1 # done $end
$var reg 1 $ reset $end
$var integer 32 % i [31:0] $end
$scope module m $end
$var wire 1 & PCSrc $end
$var wire 1 " clk $end
$var wire 1 $ reset $end
$var wire 1 ' zero $end
$var wire 5 ( wr_regnum [4:0] $end
$var wire 5 ) wr_mux_out [4:0] $end
$var wire 32 * wr_data [31:0] $end
$var wire 1 + swplus $end
$var wire 5 , rt [4:0] $end
$var wire 32 - rs_mux_out [31:0] $end
$var wire 32 . rs_alu_out [31:0] $end
$var wire 5 / rs [4:0] $end
$var wire 32 0 rd2_data [31:0] $end
$var wire 32 1 rd1_data [31:0] $end
$var wire 5 2 rd [4:0] $end
$var wire 6 3 opcode [5:0] $end
$var wire 30 4 next_PC [31:2] $end
$var wire 1 5 negative $end
$var wire 32 6 load_data [31:0] $end
$var wire 32 7 inst [31:0] $end
$var wire 32 8 imm [31:0] $end
$var wire 6 9 funct [5:0] $end
$var wire 32 : alu_out_data [31:0] $end
$var wire 1 ; RegWrite $end
$var wire 1 < RegDst $end
$var wire 30 = PC_target [31:2] $end
$var wire 30 > PC_plus4 [31:2] $end
$var wire 32 ? PC [31:0] $end
$var wire 1 @ MemWrite $end
$var wire 1 A MemToReg $end
$var wire 1 B MemRead $end
$var wire 32 C B_data [31:0] $end
$var wire 1 D BEQ $end
$var wire 1 E ALUSrc $end
$var wire 3 F ALUOp [2:0] $end
$scope module PC_reg $end
$var wire 1 " clk $end
$var wire 1 G enable $end
$var wire 1 $ reset $end
$var wire 30 H d [29:0] $end
$var reg 30 I q [29:0] $end
$upscope $end
$scope module alu $end
$var wire 32 J out [31:0] $end
$var wire 1 ' zero $end
$var wire 1 5 negative $end
$var wire 32 K inB [31:0] $end
$var wire 32 L inA [31:0] $end
$var wire 3 M control [2:0] $end
$upscope $end
$scope module branch_mux $end
$var wire 30 N out [29:0] $end
$var wire 1 & sel $end
$var wire 30 O temp1 [29:0] $end
$var wire 30 P temp2 [29:0] $end
$var wire 30 Q B [29:0] $end
$var wire 30 R A [29:0] $end
$upscope $end
$scope module data_memory $end
$var wire 32 S addr [31:0] $end
$var wire 1 " clk $end
$var wire 32 T d_out [31:0] $end
$var wire 32 U data_out [31:0] $end
$var wire 32 V internal_data_in [31:0] $end
$var wire 1 $ reset $end
$var wire 1 W valid_address $end
$var wire 1 @ mem_write $end
$var wire 1 B mem_read $end
$var wire 19 X index [18:0] $end
$var wire 32 Y data_in [31:0] $end
$var integer 32 Z i [31:0] $end
$upscope $end
$scope module decode $end
$var wire 6 [ funct [5:0] $end
$var wire 3 \ new_ALUOp [2:0] $end
$var wire 1 ] new_ALUSrc $end
$var wire 1 ^ new_BEQ $end
$var wire 1 _ new_MemRead $end
$var wire 1 ` new_MemToReg $end
$var wire 1 a new_MemWrite $end
$var wire 1 b new_RegDst $end
$var wire 1 c new_RegWrite $end
$var wire 6 d opcode [5:0] $end
$var wire 1 + swplus $end
$var wire 1 e new_inst $end
$var wire 1 f given_RegWrite $end
$var wire 1 g given_RegDst $end
$var wire 1 h given_MemWrite $end
$var wire 1 i given_MemToReg $end
$var wire 1 j given_MemRead $end
$var wire 1 k given_BEQ $end
$var wire 1 l given_ALUSrc $end
$var wire 3 m given_ALUOp [2:0] $end
$var wire 1 ; RegWrite $end
$var wire 1 < RegDst $end
$var wire 1 @ MemWrite $end
$var wire 1 A MemToReg $end
$var wire 1 B MemRead $end
$var wire 1 D BEQ $end
$var wire 1 E ALUSrc $end
$var wire 3 n ALUOp [2:0] $end
$scope module ALUOp_mux $end
$var wire 3 o B [2:0] $end
$var wire 3 p out [2:0] $end
$var wire 1 e sel $end
$var wire 3 q temp1 [2:0] $end
$var wire 3 r temp2 [2:0] $end
$var wire 3 s A [2:0] $end
$upscope $end
$scope module ALUSrc_mux $end
$var wire 1 ] B $end
$var wire 1 E out $end
$var wire 1 e sel $end
$var wire 1 t temp1 $end
$var wire 1 u temp2 $end
$var wire 1 l A $end
$upscope $end
$scope module BEQ_mux $end
$var wire 1 ^ B $end
$var wire 1 D out $end
$var wire 1 e sel $end
$var wire 1 v temp1 $end
$var wire 1 w temp2 $end
$var wire 1 k A $end
$upscope $end
$scope module MemRead_mux $end
$var wire 1 _ B $end
$var wire 1 B out $end
$var wire 1 e sel $end
$var wire 1 x temp1 $end
$var wire 1 y temp2 $end
$var wire 1 j A $end
$upscope $end
$scope module MemToReg_mux $end
$var wire 1 ` B $end
$var wire 1 A out $end
$var wire 1 e sel $end
$var wire 1 z temp1 $end
$var wire 1 { temp2 $end
$var wire 1 i A $end
$upscope $end
$scope module MemWrite_mux $end
$var wire 1 a B $end
$var wire 1 @ out $end
$var wire 1 e sel $end
$var wire 1 | temp1 $end
$var wire 1 } temp2 $end
$var wire 1 h A $end
$upscope $end
$scope module RegDst_mux $end
$var wire 1 b B $end
$var wire 1 < out $end
$var wire 1 e sel $end
$var wire 1 ~ temp1 $end
$var wire 1 !" temp2 $end
$var wire 1 g A $end
$upscope $end
$scope module RegWrite_mux $end
$var wire 1 c B $end
$var wire 1 ; out $end
$var wire 1 e sel $end
$var wire 1 "" temp1 $end
$var wire 1 #" temp2 $end
$var wire 1 f A $end
$upscope $end
$scope module given $end
$var wire 1 l ALUSrc $end
$var wire 1 i MemToReg $end
$var wire 1 g RegDst $end
$var wire 1 f RegWrite $end
$var wire 6 $" funct [5:0] $end
$var wire 1 %" nop $end
$var wire 6 &" opcode [5:0] $end
$var wire 1 '" op0 $end
$var wire 1 h MemWrite $end
$var wire 1 j MemRead $end
$var wire 1 k BEQ $end
$var wire 3 (" ALUOp [2:0] $end
$upscope $end
$upscope $end
$scope module imem $end
$var wire 30 )" addr [29:0] $end
$var wire 32 *" data [31:0] $end
$var reg 32 +" i [31:0] $end
$upscope $end
$scope module imm_mux $end
$var wire 32 ," B [31:0] $end
$var wire 32 -" out [31:0] $end
$var wire 1 E sel $end
$var wire 32 ." temp1 [31:0] $end
$var wire 32 /" temp2 [31:0] $end
$var wire 32 0" A [31:0] $end
$upscope $end
$scope module next_PC_adder $end
$var wire 30 1" in1 [29:0] $end
$var wire 30 2" in2 [29:0] $end
$var wire 30 3" out [29:0] $end
$upscope $end
$scope module rd_mux $end
$var wire 5 4" A [4:0] $end
$var wire 5 5" B [4:0] $end
$var wire 5 6" out [4:0] $end
$var wire 1 < sel $end
$var wire 5 7" temp1 [4:0] $end
$var wire 5 8" temp2 [4:0] $end
$upscope $end
$scope module rf $end
$var wire 1 " clock $end
$var wire 32 9" internal_rdData [31:0] $end
$var wire 1 ; rdWriteEnable $end
$var wire 1 $ reset $end
$var wire 32 :" rsData [31:0] $end
$var wire 5 ;" rsNum [4:0] $end
$var wire 32 <" rtData [31:0] $end
$var wire 5 =" rtNum [4:0] $end
$var wire 5 >" rdNum [4:0] $end
$var wire 32 ?" rdData [31:0] $end
$var integer 32 @" i [31:0] $end
$upscope $end
$scope module rs_alu $end
$var wire 3 A" control [2:0] $end
$var wire 32 B" inA [31:0] $end
$var wire 32 C" inB [31:0] $end
$var wire 32 D" out [31:0] $end
$var wire 1 E" zero $end
$var wire 1 F" negative $end
$upscope $end
$scope module rs_mux $end
$var wire 32 G" B [31:0] $end
$var wire 32 H" out [31:0] $end
$var wire 1 + sel $end
$var wire 32 I" temp1 [31:0] $end
$var wire 32 J" temp2 [31:0] $end
$var wire 32 K" A [31:0] $end
$upscope $end
$scope module target_PC_adder $end
$var wire 30 L" in1 [29:0] $end
$var wire 30 M" in2 [29:0] $end
$var wire 30 N" out [29:0] $end
$upscope $end
$scope module wb_mux $end
$var wire 32 O" A [31:0] $end
$var wire 32 P" B [31:0] $end
$var wire 32 Q" out [31:0] $end
$var wire 1 A sel $end
$var wire 32 R" temp1 [31:0] $end
$var wire 32 S" temp2 [31:0] $end
$upscope $end
$scope module wr_mux $end
$var wire 5 T" A [4:0] $end
$var wire 5 U" B [4:0] $end
$var wire 5 V" out [4:0] $end
$var wire 1 + sel $end
$var wire 5 W" temp1 [4:0] $end
$var wire 5 X" temp2 [4:0] $end
$upscope $end
$upscope $end
$upscope $end
$scope module test $end
$scope module m $end
$scope module rf $end
$var reg 32 Y" \r[0] [31:0] $end
$upscope $end
$upscope $end
$upscope $end
$scope module test $end
$scope module m $end
$scope module rf $end
$var reg 32 Z" \r[1] [31:0] $end
$upscope $end
$upscope $end
$upscope $end
$scope module test $end
$scope module m $end
$scope module rf $end
$var reg 32 [" \r[2] [31:0] $end
$upscope $end
$upscope $end
$upscope $end
$scope module test $end
$scope module m $end
$scope module rf $end
$var reg 32 \" \r[3] [31:0] $end
$upscope $end
$upscope $end
$upscope $end
$scope module test $end
$scope module m $end
$scope module rf $end
$var reg 32 ]" \r[4] [31:0] $end
$upscope $end
$upscope $end
$upscope $end
$scope module test $end
$scope module m $end
$scope module rf $end
$var reg 32 ^" \r[5] [31:0] $end
$upscope $end
$upscope $end
$upscope $end
$scope module test $end
$scope module m $end
$scope module rf $end
$var reg 32 _" \r[6] [31:0] $end
$upscope $end
$upscope $end
$upscope $end
$scope module test $end
$scope module m $end
$scope module rf $end
$var reg 32 `" \r[7] [31:0] $end
$upscope $end
$upscope $end
$upscope $end
$scope module test $end
$scope module m $end
$scope module rf $end
$var reg 32 a" \r[8] [31:0] $end
$upscope $end
$upscope $end
$upscope $end
$scope module test $end
$scope module m $end
$scope module rf $end
$var reg 32 b" \r[9] [31:0] $end
$upscope $end
$upscope $end
$upscope $end
$scope module test $end
$scope module m $end
$scope module rf $end
$var reg 32 c" \r[10] [31:0] $end
$upscope $end
$upscope $end
$upscope $end
$scope module test $end
$scope module m $end
$scope module rf $end
$var reg 32 d" \r[11] [31:0] $end
$upscope $end
$upscope $end
$upscope $end
$scope module test $end
$scope module m $end
$scope module rf $end
$var reg 32 e" \r[12] [31:0] $end
$upscope $end
$upscope $end
$upscope $end
$scope module test $end
$scope module m $end
$scope module rf $end
$var reg 32 f" \r[13] [31:0] $end
$upscope $end
$upscope $end
$upscope $end
$scope module test $end
$scope module m $end
$scope module rf $end
$var reg 32 g" \r[14] [31:0] $end
$upscope $end
$upscope $end
$upscope $end
$scope module test $end
$scope module m $end
$scope module rf $end
$var reg 32 h" \r[15] [31:0] $end
$upscope $end
$upscope $end
$upscope $end
$scope module test $end
$scope module m $end
$scope module rf $end
$var reg 32 i" \r[16] [31:0] $end
$upscope $end
$upscope $end
$upscope $end
$scope module test $end
$scope module m $end
$scope module rf $end
$var reg 32 j" \r[17] [31:0] $end
$upscope $end
$upscope $end
$upscope $end
$scope module test $end
$scope module m $end
$scope module rf $end
$var reg 32 k" \r[18] [31:0] $end
$upscope $end
$upscope $end
$upscope $end
$scope module test $end
$scope module m $end
$scope module rf $end
$var reg 32 l" \r[19] [31:0] $end
$upscope $end
$upscope $end
$upscope $end
$scope module test $end
$scope module m $end
$scope module rf $end
$var reg 32 m" \r[20] [31:0] $end
$upscope $end
$upscope $end
$upscope $end
$scope module test $end
$scope module m $end
$scope module rf $end
$var reg 32 n" \r[21] [31:0] $end
$upscope $end
$upscope $end
$upscope $end
$scope module test $end
$scope module m $end
$scope module rf $end
$var reg 32 o" \r[22] [31:0] $end
$upscope $end
$upscope $end
$upscope $end
$scope module test $end
$scope module m $end
$scope module rf $end
$var reg 32 p" \r[23] [31:0] $end
$upscope $end
$upscope $end
$upscope $end
$scope module test $end
$scope module m $end
$scope module rf $end
$var reg 32 q" \r[24] [31:0] $end
$upscope $end
$upscope $end
$upscope $end
$scope module test $end
$scope module m $end
$scope module rf $end
$var reg 32 r" \r[25] [31:0] $end
$upscope $end
$upscope $end
$upscope $end
$scope module test $end
$scope module m $end
$scope module rf $end
$var reg 32 s" \r[26] [31:0] $end
$upscope $end
$upscope $end
$upscope $end
$scope module test $end
$scope module m $end
$scope module rf $end
$var reg 32 t" \r[27] [31:0] $end
$upscope $end
$upscope $end
$upscope $end
$scope module test $end
$scope module m $end
$scope module rf $end
$var reg 32 u" \r[28] [31:0] $end
$upscope $end
$upscope $end
$upscope $end
$scope module test $end
$scope module m $end
$scope module rf $end
$var reg 32 v" \r[29] [31:0] $end
$upscope $end
$upscope $end
$upscope $end
$scope module test $end
$scope module m $end
$scope module rf $end
$var reg 32 w" \r[30] [31:0] $end
$upscope $end
$upscope $end
$upscope $end
$scope module test $end
$scope module m $end
$scope module rf $end
$var reg 32 x" \r[31] [31:0] $end
$upscope $end
$upscope $end
$upscope $end
$enddefinitions $end
#0
$dumpvars
b10000000000010000000000000000 x"
b10000000000010000000000000000 w"
b10000000000010000000000000000 v"
b10000000000010000000000000000 u"
b10000000000010000000000000000 t"
b10000000000010000000000000000 s"
b10000000000010000000000000000 r"
b10000000000010000000000000000 q"
b10000000000010000000000000000 p"
b10000000000010000000000000000 o"
b10000000000010000000000000000 n"
b10000000000010000000000000000 m"
b10000000000010000000000000000 l"
b10000000000010000000000000000 k"
b10000000000010000000000000000 j"
b10000000000010000000000000000 i"
b10000000000010000000000000000 h"
b10000000000010000000000000000 g"
b10000000000010000000000000000 f"
b10000000000010000000000000000 e"
b10000000000010000000000000000 d"
b10000000000010000000000000000 c"
b10000000000010000000000000000 b"
b10000000000010000000000000000 a"
b10000000000010000000000000000 `"
b10000000000010000000000000000 _"
b10000000000010000000000000000 ^"
b10000000000010000000000000000 ]"
b10000000000010000000000000000 \"
b10000000000010000000000000000 ["
b10000000000010000000000000000 Z"
b0 Y"
bx X"
bx W"
bx V"
bx U"
bx T"
bx S"
bx R"
bx Q"
bx P"
bx O"
bx N"
bx M"
bx L"
bx K"
bx J"
bx I"
bx H"
bx G"
xF"
xE"
bx D"
b100 C"
bx B"
b0 A"
b100000 @"
bx ?"
bx >"
bx ="
bx <"
bx ;"
bx :"
bx 9"
bx 8"
bx 7"
bx 6"
bx 5"
bx 4"
bx 3"
b1 2"
bx 1"
bx 0"
bx /"
bx ."
bx -"
bx ,"
b100000000 +"
bx *"
bx )"
bx ("
x'"
bx &"
x%"
bx $"
x#"
x""
0!"
x~
x}
x|
0{
xz
0y
xx
0w
xv
xu
xt
bx s
b0 r
bx q
bx p
b0 o
bx n
bx m
xl
xk
xj
xi
xh
xg
xf
xe
bx d
1c
0b
1a
0`
0_
0^
1]
b0 \
bx [
b1000000000000000000 Z
bx Y
bx X
xW
bx V
bx U
bx T
bx S
bx R
bx Q
bx P
bx O
bx N
bx M
bx L
bx K
bx J
bx I
bx H
1G
bx F
xE
xD
bx C
xB
xA
x@
bx00 ?
bx >
bx =
x<
x;
bx :
bx 9
bx 8
bx 7
bx 6
x5
bx 4
bx 3
bx 2
bx 1
bx 0
bx /
bx .
bx -
bx ,
x+
bx *
bx )
bx (
x'
x&
b100000 %
1$
0#
0"
bx00 !
$end
#5
b10110 9"
b10110 -
b10110 ?"
b10110 H"
b10110 I"
b10110 *
b10110 K"
b10110 Q"
b10110 S"
b10110 6
b10110 U
b10110 P"
b10110 T
1W
0'
b0 F
b0 M
b0 n
b0 p
b100000000000000 X
b0 q
05
b0 m
b0 s
b0 ("
b10000000000010000000000000000 :
b10000000000010000000000000000 J
b10000000000010000000000000000 S
b10000000000010000000000000000 O"
1;
1""
b10 )
b10 >"
b10 V"
0F"
0&
b0 R"
1f
b10 W"
0E"
b10000000000010000000000000100 .
b10000000000010000000000000100 D"
b10000000000010000000000000100 G"
b100000000000000000001 4
b100000000000000000001 H
b100000000000000000001 N
1E
0<
0D
1A
1B
0@
b10 (
b10 6"
b10 T"
b0 P
b0 C
b0 K
b0 -"
1t
0u
0}
0~
0#"
b0 J"
0v
0g
1z
1x
1l
0|
0%"
b0 8"
b10 7"
b0 ."
b0 X"
b100000000000000000001 =
b100000000000000000001 Q
b100000000000000000001 N"
b0 M"
b0 /"
b0 9
b0 [
b0 $"
0+
0e
0k
1i
1j
0h
0'"
b100011 3
b100011 d
b100011 &"
b0 2
b0 5"
b10000000000010000000000000000 V
b10000000000010000000000000000 0
b10000000000010000000000000000 Y
b10000000000010000000000000000 0"
b10000000000010000000000000000 <"
b10 ,
b10 4"
b10 ="
b10000000000010000000000000000 1
b10000000000010000000000000000 L
b10000000000010000000000000000 :"
b10000000000010000000000000000 B"
b11100 /
b11100 ;"
b11100 U"
b0 8
b0 ,"
b100000000000000000001 O
b10001111100000100000000000000000 7
b10001111100000100000000000000000 *"
b100000000000000000001 >
b100000000000000000001 R
b100000000000000000001 3"
b100000000000000000001 L"
b100000000000000000000 1"
b100000000000000000000 )"
b10000000000000000000000 ?
b10000000000000000000000 !
b100000000000000000000 I
1"
#7
0$
#10
0"
#15
b101010 9"
b101010 -
b101010 ?"
b101010 H"
b101010 I"
b101010 *
b101010 K"
b101010 Q"
b101010 S"
b101010 6
b101010 U
b101010 P"
b101010 T
b100000000000001 X
b10000000000010000000000000100 :
b10000000000010000000000000100 J
b10000000000010000000000000100 S
b10000000000010000000000000100 O"
b11 )
b11 >"
b11 V"
b11 W"
b11 (
b11 6"
b11 T"
b100 C
b100 K
b100 -"
b11 7"
b100 M"
b100 /"
b100000000000000000010 4
b100000000000000000010 H
b100000000000000000010 N
b100 9
b100 [
b100 $"
b11 ,
b11 4"
b11 ="
b100 8
b100 ,"
b100000000000000000010 O
b10001111100000110000000000000100 7
b10001111100000110000000000000100 *"
b100000000000000000110 =
b100000000000000000110 Q
b100000000000000000110 N"
b100000000000000000010 >
b100000000000000000010 R
b100000000000000000010 3"
b100000000000000000010 L"
b100000000000000000001 1"
b100000000000000000001 )"
b10110 ["
b10000000000010000000000000000 V
b10000000000010000000000000000 0
b10000000000010000000000000000 Y
b10000000000010000000000000000 0"
b10000000000010000000000000000 <"
b10000000000000000000100 ?
b10000000000000000000100 !
b100000000000000000001 I
1"
#20
0"
#25
b100 )
b100 >"
b100 V"
b100 W"
b1000000 9"
b1000000 -
b1000000 ?"
b1000000 H"
b100 (
b100 6"
b100 T"
b1000000 I"
b11011110101011011011111011101111 T
b10000 X
b0 7"
b100 8"
b1000000 *
b1000000 K"
b1000000 Q"
b101010 ."
0W
1<
b1000000 R"
b0 S"
0E
b0 6
b0 U
b0 P"
b11010 .
b11010 D"
b11010 G"
b1000000 :
b1000000 J
b1000000 S
b1000000 O"
1~
0A
0t
0B
b101010 C
b101010 K
b101010 -"
1g
0z
0l
0x
b10000000100000 M"
b0 /"
b100000000000000000011 4
b100000000000000000011 H
b100000000000000000011 N
b100000 9
b100000 [
b100000 $"
0i
0j
1'"
b0 3
b0 d
b0 &"
b100 2
b100 5"
b10110 1
b10110 L
b10110 :"
b10110 B"
b10 /
b10 ;"
b10 U"
b10000000100000 8
b10000000100000 ,"
b100000000000000000011 O
b10000110010000000100000 7
b10000110010000000100000 *"
b100000010000000100011 =
b100000010000000100011 Q
b100000010000000100011 N"
b100000000000000000011 >
b100000000000000000011 R
b100000000000000000011 3"
b100000000000000000011 L"
b100000000000000000010 1"
b100000000000000000010 )"
b10000000000000000001000 ?
b10000000000000000001000 !
b100000000000000000010 I
b101010 \"
b101010 V
b101010 0
b101010 Y
b101010 0"
b101010 <"
1"
#30
0"
#35
bx T
15
b1 F
b1 M
b1 n
b1 p
b1 q
b1 m
b1 s
b1 ("
b11111111111111111111111111010110 9"
b11111111111111111111111111010110 -
b11111111111111111111111111010110 ?"
b11111111111111111111111111010110 H"
b11111111111111111111111111010110 I"
b1111111111111110101 X
b11111111111111111111111111010110 *
b11111111111111111111111111010110 K"
b11111111111111111111111111010110 Q"
b11111111111111111111111111010110 R"
b11111111111111111111111111010110 :
b11111111111111111111111111010110 J
b11111111111111111111111111010110 S
b11111111111111111111111111010110 O"
b101 )
b101 >"
b101 V"
b101 W"
b101 (
b101 6"
b101 T"
b1000000 C
b1000000 K
b1000000 -"
b101 8"
b1000000 ."
b10100000100010 M"
b100000000000000000100 4
b100000000000000000100 H
b100000000000000000100 N
b100010 9
b100010 [
b100010 $"
b101 2
b101 5"
b1000000 V
b1000000 0
b1000000 Y
b1000000 0"
b1000000 <"
b100 ,
b100 4"
b100 ="
b10100000100010 8
b10100000100010 ,"
b100000000000000000100 O
b10001000010100000100010 7
b10001000010100000100010 *"
b100000010100000100110 =
b100000010100000100110 Q
b100000010100000100110 N"
b100000000000000000100 >
b100000000000000000100 R
b100000000000000000100 3"
b100000000000000000100 L"
b100000000000000000011 1"
b100000000000000000011 )"
b1000000 ]"
b10000000000000000001100 ?
b10000000000000000001100 !
b100000000000000000011 I
1"
#40
0"
#45
0'
b10 F
b10 M
b10 n
b10 p
b10 q
b10 m
b10 s
b10 ("
b11011110101011011011111011101111 T
b10 9"
b10 -
b10 ?"
b10 H"
05
b10 I"
b110 )
b110 >"
b110 V"
b0 X
b10 *
b10 K"
b10 Q"
b110 W"
b101110 .
b101110 D"
b101110 G"
b10 R"
b110 (
b110 6"
b110 T"
b11111111111111111111111111010110 C
b11111111111111111111111111010110 K
b11111111111111111111111111010110 -"
b10 :
b10 J
b10 S
b10 O"
b110 8"
b11111111111111111111111111010110 ."
b11000000100100 M"
b100000000000000000101 4
b100000000000000000101 H
b100000000000000000101 N
b100100 9
b100100 [
b100100 $"
b110 2
b110 5"
b11111111111111111111111111010110 V
b11111111111111111111111111010110 0
b11111111111111111111111111010110 Y
b11111111111111111111111111010110 0"
b11111111111111111111111111010110 <"
b101 ,
b101 4"
b101 ="
b101010 1
b101010 L
b101010 :"
b101010 B"
b11 /
b11 ;"
b11 U"
b11000000100100 8
b11000000100100 ,"
b100000000000000000101 O
b11001010011000000100100 7
b11001010011000000100100 *"
b100000011000000101001 =
b100000011000000101001 Q
b100000011000000101001 N"
b100000000000000000101 >
b100000000000000000101 R
b100000000000000000101 3"
b100000000000000000101 L"
b100000000000000000100 1"
b100000000000000000100 )"
b10000000000000000010000 ?
b10000000000000000010000 !
b100000000000000000100 I
b11111111111111111111111111010110 ^"
1"
#50
0"
#55
b11 F
b11 M
b11 n
b11 p
b111110 9"
b111110 -
b111110 ?"
b111110 H"
b11 q
b111110 I"
b11 m
b11 s
b11 ("
b1111 X
b111110 *
b111110 K"
b111110 Q"
b111110 R"
b111110 :
b111110 J
b111110 S
b111110 O"
b111 )
b111 >"
b111 V"
b111 W"
b11010 .
b11010 D"
b11010 G"
b111 (
b111 6"
b111 T"
b101010 C
b101010 K
b101010 -"
b111 8"
b101010 ."
b11100000100101 M"
b100000000000000000110 4
b100000000000000000110 H
b100000000000000000110 N
b100101 9
b100101 [
b100101 $"
b111 2
b111 5"
b101010 V
b101010 0
b101010 Y
b101010 0"
b101010 <"
b11 ,
b11 4"
b11 ="
b10110 1
b10110 L
b10110 :"
b10110 B"
b10 /
b10 ;"
b10 U"
b11100000100101 8
b11100000100101 ,"
b100000000000000000110 O
b10000110011100000100101 7
b10000110011100000100101 *"
b100000011100000101011 =
b100000011100000101011 Q
b100000011100000101011 N"
b100000000000000000110 >
b100000000000000000110 R
b100000000000000000110 3"
b100000000000000000110 L"
b100000000000000000101 1"
b100000000000000000101 )"
b10 _"
b10000000000000000010100 ?
b10000000000000000010100 !
b100000000000000000101 I
1"
#60
0"
#65
1'
b0 9"
b0 -
b0 ?"
b0 H"
b0 I"
b11011110101011011011111011101111 T
b0 X
b0 *
b0 K"
b0 Q"
b100 F
b100 M
b100 n
b100 p
05
b0 R"
b100 q
b0 :
b0 J
b0 S
b0 O"
b100 m
b100 s
b100 ("
b1000 )
b1000 >"
b1000 V"
b1000 W"
b1000 (
b1000 6"
b1000 T"
b11111111111111111111111111010110 C
b11111111111111111111111111010110 K
b11111111111111111111111111010110 -"
b1000 8"
b11111111111111111111111111010110 ."
b100000000101010 M"
b100000000000000000111 4
b100000000000000000111 H
b100000000000000000111 N
b101010 9
b101010 [
b101010 $"
b1000 2
b1000 5"
b11111111111111111111111111010110 V
b11111111111111111111111111010110 0
b11111111111111111111111111010110 Y
b11111111111111111111111111010110 0"
b11111111111111111111111111010110 <"
b101 ,
b101 4"
b101 ="
b100000000101010 8
b100000000101010 ,"
b100000000000000000111 O
b10001010100000000101010 7
b10001010100000000101010 *"
b100000100000000110001 =
b100000100000000110001 Q
b100000100000000110001 N"
b100000000000000000111 >
b100000000000000000111 R
b100000000000000000111 3"
b100000000000000000111 L"
b100000000000000000110 1"
b100000000000000000110 )"
b10000000000000000011000 ?
b10000000000000000011000 !
b100000000000000000110 I
b111110 `"
1"
#70
0"
#75
b1 9"
b1 -
b1 ?"
b1 H"
b1 I"
b1 *
b1 K"
b1 Q"
b1 R"
0'
b1 :
b1 J
b1 S
b1 O"
b1001 )
b1001 >"
b1001 V"
b1001 W"
b110 .
b110 D"
b110 G"
b1001 (
b1001 6"
b1001 T"
b101010 C
b101010 K
b101010 -"
b1001 8"
b101010 ."
b100100000101010 M"
b100000000000000001000 4
b100000000000000001000 H
b100000000000000001000 N
b1001 2
b1001 5"
b101010 V
b101010 0
b101010 Y
b101010 0"
b101010 <"
b11 ,
b11 4"
b11 ="
b10 1
b10 L
b10 :"
b10 B"
b110 /
b110 ;"
b110 U"
b100100000101010 8
b100100000101010 ,"
b100000000000000001000 O
b110000110100100000101010 7
b110000110100100000101010 *"
b100000100100000110010 =
b100000100100000110010 Q
b100000100100000110010 N"
b100000000000000001000 >
b100000000000000001000 R
b100000000000000001000 3"
b100000000000000001000 L"
b100000000000000000111 1"
b100000000000000000111 )"
b0 a"
b10000000000000000011100 ?
b10000000000000000011100 !
b100000000000000000111 I
1"
#80
0"
#85
bx T
b1111111111111111111 X
b11111111111111111111111111111111 9"
b11111111111111111111111111111111 -
b11111111111111111111111111111111 ?"
b11111111111111111111111111111111 H"
15
b11111111111111111111111111111111 I"
b0 P
b11111111111111111111111111111111 *
b11111111111111111111111111111111 K"
b11111111111111111111111111111111 Q"
0&
b11111111111111111111111111111111 R"
0'
b11111111111111111111111111111111 :
b11111111111111111111111111111111 J
b11111111111111111111111111111111 S
b11111111111111111111111111111111 O"
0;
b1 F
b1 M
b1 n
b1 p
0""
b1 q
b0 )
b0 >"
b0 V"
0f
b1 m
b1 s
b1 ("
b0 W"
b100 .
b100 D"
b100 G"
1D
b0 (
b0 6"
b0 T"
b1 C
b1 K
b1 -"
1v
b0 8"
b1 ."
b11 M"
b100000000000000001001 4
b100000000000000001001 H
b100000000000000001001 N
b11 9
b11 [
b11 $"
1k
0'"
b100 3
b100 d
b100 &"
b0 2
b0 5"
b1 V
b1 0
b1 Y
b1 0"
b1 <"
b1001 ,
b1001 4"
b1001 ="
b0 1
b0 L
b0 :"
b0 B"
b1000 /
b1000 ;"
b1000 U"
b11 8
b11 ,"
b100000000000000001001 O
b10001000010010000000000000011 7
b10001000010010000000000000011 *"
b100000000000000001100 =
b100000000000000001100 Q
b100000000000000001100 N"
b100000000000000001001 >
b100000000000000001001 R
b100000000000000001001 3"
b100000000000000001001 L"
b100000000000000001000 1"
b100000000000000001000 )"
b10000000000000000100000 ?
b10000000000000000100000 !
b100000000000000001000 I
b1 b"
1"
#90
0"
#95
b10000000000010000000000000000 9"
b10000000000010000000000000000 -
b10000000000010000000000000000 ?"
b10000000000010000000000000000 H"
b0 F
b0 M
b0 n
b0 p
b10000000000010000000000000000 I"
b0 q
b10110 T
b100000000000000 X
b10000000000010000000000000000 *
b10000000000010000000000000000 K"
b10000000000010000000000000000 Q"
1E
b0 m
b0 s
b0 ("
b10000000000010000000000000100 .
b10000000000010000000000000100 D"
b10000000000010000000000000100 G"
05
1W
b10000000000010000000000000000 R"
0D
1t
1@
b0 C
b0 K
b0 -"
b10000000000010000000000000000 :
b10000000000010000000000000000 J
b10000000000010000000000000000 S
b10000000000010000000000000000 O"
0v
1l
1|
b0 ."
b0 M"
b100000000000000001010 4
b100000000000000001010 H
b100000000000000001010 N
b0 9
b0 [
b0 $"
0k
1h
b101011 3
b101011 d
b101011 &"
b101010 V
b101010 0
b101010 Y
b101010 0"
b101010 <"
b11 ,
b11 4"
b11 ="
b10000000000010000000000000000 1
b10000000000010000000000000000 L
b10000000000010000000000000000 :"
b10000000000010000000000000000 B"
b11100 /
b11100 ;"
b11100 U"
b0 8
b0 ,"
b100000000000000001010 O
b10101111100000110000000000000000 7
b10101111100000110000000000000000 *"
b100000000000000001010 =
b100000000000000001010 Q
b100000000000000001010 N"
b100000000000000001010 >
b100000000000000001010 R
b100000000000000001010 3"
b100000000000000001010 L"
b100000000000000001001 1"
b100000000000000001001 )"
b10000000000000000100100 ?
b10000000000000000100100 !
b100000000000000001001 I
1"
#100
0"
